Listing Grades for paper : V. Paxson, Bro: A System for Detecting Network Intruders in Real-Time
Listing 38 graded submissions

Names,Stanford IDs,Grades
"Lamy Camille",5733210,2
"Pandey Jitendra",5454552,1
"Whitbeck James",5536728,1
"Helsley Benjamin",5772311,2
"Mashayekhi Omid",5735663,1
"Conte Elliot",5519402,2
"Anubhai Rishita",5713887,2
"Ramesh Anusha",5847028,2
"Mibuari Eric",5538348,1
"Miguel Gary",5371700,2
"Chopra Harshit",5591493,2
"Shapero Ben",5465232,1
"Case Carl",5496672,2
"Chong Christophe",5486773,2
"Cumings MacKenzie",5591913,2
"Singh, Angad",5780778,1
"Yi Kun",5733796,2
"Costa-Roberts Justin",5455475,2
"Nguyen Chanh",5457173,2
"Topalovic Emin",5524439,2
"Vasekar Amogh",5731345,2
"Walsh RJ",5474131,2
"McLaughlin Tom",5461387,2
"Sommermann Daniel",5458281,2
"Dubie Jack",5465895,1
"Marrama Joseph",5458806,2
"Chidrewar Vaibhav",5737188,1
"Valdez Josh",5598600,2
"Franco Diego",5846893,2
"Watanaprakornkul Phumchanit",5546493,1
"Schneider David",5481644,2
"Li Yanxi (Frank)",5541325,2
"Lim Maxine",5519460,2
"Hiesey John",5460109,1
"Subramanian Pattabiraman",5571635,1
"Wong Timothy",5456030,2
"Haven Andrew",5451467,2
0 students didn't submit a critique
0 critiques not graded
